Rasch_Model
…
data(raschdat1)
raschdat1 %>% 
  summarise_all(list(Mean = mean, Variance = var)) %>% 
  pivot_longer(cols = everything(),
               names_to = c("Item", "Statistic"),
               names_pattern = "(I\\d+)_(.+)",
               values_to = "Value") %>% 
  pivot_wider(id_cols = Item,
              names_from = Statistic,
              values_from = Value)

## # A tibble: 30 x 3
##    Item   Mean Variance
##    <chr> <dbl>    <dbl>
##  1 I1    0.76     0.184
##  2 I2    0.47     0.252
##  3 I3    0.62     0.238
##  4 I4    0.33     0.223
##  5 I5    0.22     0.173
##  6 I6    0.48     0.252
##  7 I7    0.6      0.242
##  8 I8    0.61     0.240
##  9 I9    0.570    0.248
## 10 I10   0.25     0.189
## # … with 20 more rows
…
